##### THIS FILE CONTAINS INPUTS THAT SHOULD BE SET #####
##### FOR EACH NEW DATASET                         #####


#Name of the measurement set that will be used.
#It will be created if fits-idi files are used as input.
#Must be different from the name of the fits-idi input file(s).
ms_name = e18c25.ms

#Absolute path to the working directory. Here the fits file(s) or MS must be found.
#If not present, the MS will be created here, together with folders for logs and diagnostic output.
#Can also be set to '$pwd', which will be expanded to the parent directory of the input folder.
workdir = $pwd

##
#  ** If you make changes to any of the sources listed below, you will have to       **
#  ** pass the -m command line argument to picard.sh to re-determine the metadata!   **
##

#Name of the science target(s) of the experiment.
#Write a comma separated list if there are more then one.
#Science targets are typically weak sources which cannot be used for calibration tasks.
#If all observed targets can be set as some type of calibrator below, set science_target = None.
science_target = NRAO530, SGRA, OJ287

### Lists for the different types of calibrators.                                              ###
### Write a comma separated lists if there are more than one.                                  ###
### The same source can of course occur multiple times                                         ###
###   (same calibrator for instrumental phase and delay calibration and bandpass for example). ###
### Put None if a certain calibrator is not needed                                             ###
###   (e.g., no phase referencing or no polarization experiment).                              ###

#Bright calibrators for instrumental phase and delay calibration.
calibrators_instrphase = 3C279, M87

#Bright calibrators for complex bandpass calibration.
#If bandtype_cmplx_bandpass = 'BPOLY' is set in array.inp, only a single source can be set here,
#since POLY bandpasses cannot be averaged.
calibrators_bandpass = 3C279

#Bright calibrators for rl delay and phase offsets.
#If set to None, the rl delay calibration will be skipped.
calibrators_rldly = None

#Calibrators for D-term calibration.
#Must be polarized and observed over a wide range of parallactic angles for every antenna.
#D-terms should be solved in a post-processing step after calibrators have been imaged.
#If set to None, the D-term calibration will be skipped.
calibrators_dterms = None

#Phase-referencing sources.
#If set, the phase-referencing mode is activated.
#For a list of comma separated science_targets, use a corresponding csv list here.
#Example: science_target = s1, s2, s3 and calibrators_phaseref = p1, p2 means that
#p1 is used as phaseref source for s1, p2 is used for s2, and no phase-referencing is 
#done for s3.
calibrators_phaseref = None

#Whether or not to also fringe-fit the science targets themselves in phase-referencing mode.
#Set to False for very weak science targets, then only the fringe solutions from
#calibrators_phaseref are applied to the science targets.
#Set to True if the science targets are strong enough for a residual fringe-fit. In that case,
#after a transfer of fringe solutions from calibrators_phaseref, the science targets themselves
#are fringe-fitted as well, to take out residual phase/delays/rates.
#Generally, this should be False for astrometry. It should be True when the calibrator is far away
#from the science target and/or at higher frequency observations.
phaseref_ff_science = False

### End of calibrator lists.                                                   ###
